{
    "env":"production",
    "runtime": {
        "port": {
            "mobile-api": 3000
        },
        "hosts": {
            "mobile-api": {
                "local": "localhost:3000",
                "staging": "dds.christianappdevelopers.com:3000",
                "production": "dds.christianappdevelopers.com:3000"
            }
        }
    },
    "services": {
        "local": {
            "mobile-api": "mobile-api-dev"
           
        },
        "staging": {
            "mobile-api": "mobile-api-staging"
            
        },
        "production": {
            "mobile-api": "mobile-api-prod"
           
        }
    }
}
